5243
…
## Warning: Trying to compute distinct() for variables not found in the data:
## - `row_col`, `column_col`
## This is an error, but only a warning is raised for compatibility reasons.
## The operation will return the input unchanged.

## <<DocumentTermMatrix (documents: 7, terms: 18812)>>
## Non-/sparse entries: 39478/92206
## Sparsity           : 70%
## Maximal term length: 76
## Weighting          : term frequency (tf)

## A LDA_VEM topic model with 4 topics.

## # A tibble: 75,248 x 3
##    topic term        beta
##    <int> <chr>      <dbl>
##  1     1 friend 0.000747 
##  2     2 friend 0.000940 
##  3     3 friend 0.0000413
##  4     4 friend 0.0381   
##  5     1 day    0.0150   
##  6     2 day    0.0181   
##  7     3 day    0.0113   
##  8     4 day    0.0189   
##  9     1 time   0.0135   
## 10     2 time   0.0122   
## # ... with 75,238 more rows

## # A tibble: 40 x 3
##    topic term       beta
##    <int> <chr>     <dbl>
##  1     1 watched  0.0448
##  2     1 game     0.0253
##  3     1 played   0.0205
##  4     1 favorite 0.0202
##  5     1 movie    0.0188
##  6     1 day      0.0150
##  7     1 time     0.0135
##  8     1 video    0.0122
##  9     1 weather  0.0108
## 10     1 enjoyed  0.0102
## # ... with 30 more rows
…
